{
  "name": "Region",
  "fields": [
    {
      "fieldName": "regionName",
      "fieldType": "String"
    }
  ],
  "relationships": [],
  "changelogDate": "20201108092332",
  "entityTableName": "region",
  "dto": "no",
  "pagination": "no",
  "service": "serviceImpl",
  "jpaMetamodelFiltering": false,
  "fluentMethods": true,
  "readOnly": false,
  "embedded": false,
  "clientRootFolder": "",
  "applications": "*"
}
